mtllib 1.mtl
o Default
v 2 0 1
v 1 0 1
v 1 0 0
v 2 0 0
v 3 0 1
v 3 0 0
v 4 0 1
v 4 0 0
v 5 0 1
v 5 0 0
v 6 0 1
v 6 0 0
v 5 0 2
v 4 0 2
v 2 0 2
v 1 0 2
v 2 0 3
v 1 0 3
v 3 0 3
v 3 0 2
v 4 0 3
v 5 0 3
v 0 0 1
v 0 0 0
v 0 0 2
v 0 0 3
v 7 0 0
v 7 1 0
v 8 1 0
v 8 0 0
v 6 1 0
v 5 1 0
v 4 1 0
v 3 1 0
v 2 1 0
v 1 1 0
v 0 1 0
v 0 2 0
v 1 2 0
v 2 2 0
v 3 2 0
v 4 2 0
v 5 2 0
v 6 2 0
v 7 2 0
v 8 2 0
v 8 1 -1
v 8 0 -1
v 8 2 -1
v 7 2 -1
v 6 2 -1
v 5 2 -1
v 4 2 -1
v 3 2 -1
v 2 2 -1
v 1 2 -1
v 0 2 -1
v 9 0 1
v 8 0 1
v 9 0 0
v 9 0 2
v 8 0 2
v 9 0 3
v 8 0 3
v 9 0 -1
v 10 0 0
v 10 0 -1
v 11 0 0
v 11 0 -1
v 10 0 -2
v 11 0 -2
v 10 0 -3
v 11 0 -3
v 9 1 -1
v 9 2 -1
v 10 1 -1
v 10 2 -1
v 10 1 -2
v 10 2 -2
v 10 2 -3
v 10 1 -3
v 11 1 -3
v 11 2 -3
v 9 2 -2
v 9 2 -3
v 8 2 -2
v 6 0 2
v 7 0 3
v 6 0 3
v 7 0 2
v 7 0 1
vt 0.1875 0.9375
vt 0.25 1
vt 0.1875 1
vt 0.1875 0.9375
vt 0.25 0.9375
vt 0.25 1
vt 0.1875 0.9375
vt 0.25 1
vt 0.1875 1
vt 0.1875 0.9375
vt 0.25 0.9375
vt 0.25 1
vt 0.1875 0.9375
vt 0.25 1
vt 0.1875 1
vt 0.1875 0.9375
vt 0.25 0.9375
vt 0.25 1
vt 0.1875 0.9375
vt 0.25 1
vt 0.1875 1
vt 0.1875 0.9375
vt 0.25 0.9375
vt 0.25 1
vt 0.1875 0.9375
vt 0.25 1
vt 0.1875 1
vt 0.1875 0.9375
vt 0.25 0.9375
vt 0.25 1
vt 0.1875 0.9375
vt 0.25 1
vt 0.1875 1
vt 0.1875 0.9375
vt 0.25 0.9375
vt 0.25 1
vt 0.1875 0.9375
vt 0.25 1
vt 0.1875 1
vt 0.1875 0.9375
vt 0.25 0.9375
vt 0.25 1
vt 0.1875 0.9375
vt 0.25 1
vt 0.1875 1
vt 0.1875 0.9375
vt 0.25 0.9375
vt 0.25 1
vt 0.1875 0.9375
vt 0.25 1
vt 0.1875 1
vt 0.1875 0.9375
vt 0.25 0.9375
vt 0.25 1
vt 0.1875 0.9375
vt 0.25 1
vt 0.1875 1
vt 0.1875 0.9375
vt 0.25 0.9375
vt 0.25 1
vt 0.1875 0.9375
vt 0.25 1
vt 0.1875 1
vt 0.1875 0.9375
vt 0.25 0.9375
vt 0.25 1
vt 0.1875 0.9375
vt 0.25 1
vt 0.1875 1
vt 0.1875 0.9375
vt 0.25 0.9375
vt 0.25 1
vt 0.1875 0.9375
vt 0.25 1
vt 0.1875 1
vt 0.1875 0.9375
vt 0.25 0.9375
vt 0.25 1
vt 0.1875 0.9375
vt 0.25 1
vt 0.1875 1
vt 0.1875 0.9375
vt 0.25 0.9375
vt 0.25 1
vt 0.125 0.9375
vt 0.1875 1
vt 0.125 1
vt 0.125 0.9375
vt 0.1875 0.9375
vt 0.1875 1
vt 0.125 0.9375
vt 0.1875 1
vt 0.125 1
vt 0.125 0.9375
vt 0.1875 0.9375
vt 0.1875 1
vt 0.125 0.9375
vt 0.1875 1
vt 0.125 1
vt 0.125 0.9375
vt 0.1875 0.9375
vt 0.1875 1
vt 0.125 0.9375
vt 0.1875 1
vt 0.125 1
vt 0.125 0.9375
vt 0.1875 0.9375
vt 0.1875 1
vt 0.125 0.9375
vt 0.1875 1
vt 0.125 1
vt 0.125 0.9375
vt 0.1875 0.9375
vt 0.1875 1
vt 0.125 0.9375
vt 0.1875 1
vt 0.125 1
vt 0.125 0.9375
vt 0.1875 0.9375
vt 0.1875 1
vt 0.125 0.9375
vt 0.1875 1
vt 0.125 1
vt 0.125 0.9375
vt 0.1875 0.9375
vt 0.1875 1
vt 0.125 0.9375
vt 0.1875 1
vt 0.125 1
vt 0.125 0.9375
vt 0.1875 0.9375
vt 0.1875 1
vt 0.125 0.9375
vt 0.1875 1
vt 0.125 1
vt 0.125 0.9375
vt 0.1875 0.9375
vt 0.1875 1
vt 0.125 0.9375
vt 0.1875 1
vt 0.125 1
vt 0.125 0.9375
vt 0.1875 0.9375
vt 0.1875 1
vt 0.125 0.9375
vt 0.1875 1
vt 0.125 1
vt 0.125 0.9375
vt 0.1875 0.9375
vt 0.1875 1
vt 0.125 0.9375
vt 0.1875 1
vt 0.125 1
vt 0.125 0.9375
vt 0.1875 0.9375
vt 0.1875 1
vt 0.125 0.9375
vt 0.1875 1
vt 0.125 1
vt 0.125 0.9375
vt 0.1875 0.9375
vt 0.1875 1
vt 0.125 0.9375
vt 0.1875 1
vt 0.125 1
vt 0.125 0.9375
vt 0.1875 0.9375
vt 0.1875 1
vt 0.125 0.9375
vt 0.1875 1
vt 0.125 1
vt 0.125 0.9375
vt 0.1875 0.9375
vt 0.1875 1
vt 0.125 0.9375
vt 0.1875 1
vt 0.125 1
vt 0.125 0.9375
vt 0.1875 0.9375
vt 0.1875 1
vt 0.125 0.9375
vt 0.1875 1
vt 0.125 1
vt 0.125 0.9375
vt 0.1875 0.9375
vt 0.1875 1
vt 0.125 0.9375
vt 0.1875 1
vt 0.125 1
vt 0.125 0.9375
vt 0.1875 0.9375
vt 0.1875 1
vt 0.125 0.9375
vt 0.1875 1
vt 0.125 1
vt 0.125 0.9375
vt 0.1875 0.9375
vt 0.1875 1
vt 0.125 0.9375
vt 0.1875 1
vt 0.125 1
vt 0.125 0.9375
vt 0.1875 0.9375
vt 0.1875 1
vt 0.125 0.9375
vt 0.1875 1
vt 0.125 1
vt 0.125 0.9375
vt 0.1875 0.9375
vt 0.1875 1
vt 0.125 0.9375
vt 0.1875 1
vt 0.125 1
vt 0.125 0.9375
vt 0.1875 0.9375
vt 0.1875 1
vt 0.125 0.9375
vt 0.1875 1
vt 0.125 1
vt 0.125 0.9375
vt 0.1875 0.9375
vt 0.1875 1
vt 0.125 0.9375
vt 0.1875 1
vt 0.125 1
vt 0.125 0.9375
vt 0.1875 0.9375
vt 0.1875 1
vt 0.125 0.9375
vt 0.1875 1
vt 0.125 1
vt 0.125 0.9375
vt 0.1875 0.9375
vt 0.1875 1
vt 0.125 0.9375
vt 0.1875 1
vt 0.125 1
vt 0.125 0.9375
vt 0.1875 0.9375
vt 0.1875 1
vt 0.25 0.9375
vt 0.3125 1
vt 0.25 1
vt 0.25 0.9375
vt 0.3125 0.9375
vt 0.3125 1
vt 0.25 0.9375
vt 0.3125 1
vt 0.25 1
vt 0.25 0.9375
vt 0.3125 0.9375
vt 0.3125 1
vt 0.25 0.9375
vt 0.3125 1
vt 0.25 1
vt 0.25 0.9375
vt 0.3125 0.9375
vt 0.3125 1
vt 0.25 0.9375
vt 0.3125 1
vt 0.25 1
vt 0.25 0.9375
vt 0.3125 0.9375
vt 0.3125 1
vt 0.25 0.9375
vt 0.3125 1
vt 0.25 1
vt 0.25 0.9375
vt 0.3125 0.9375
vt 0.3125 1
vt 0.25 0.9375
vt 0.3125 1
vt 0.25 1
vt 0.25 0.9375
vt 0.3125 0.9375
vt 0.3125 1
vt 0.25 0.9375
vt 0.3125 1
vt 0.25 1
vt 0.25 0.9375
vt 0.3125 0.9375
vt 0.3125 1
vt 0.25 0.9375
vt 0.3125 1
vt 0.25 1
vt 0.25 0.9375
vt 0.3125 0.9375
vt 0.3125 1
vt 0.3125 0.9375
vt 0.375 1
vt 0.3125 1
vt 0.3125 0.9375
vt 0.375 0.9375
vt 0.375 1
vt 0.3125 0.9375
vt 0.375 1
vt 0.3125 1
vt 0.3125 0.9375
vt 0.375 0.9375
vt 0.375 1
vt 0.3125 0.9375
vt 0.375 1
vt 0.3125 1
vt 0.3125 0.9375
vt 0.375 0.9375
vt 0.375 1
vt 0.3125 0.9375
vt 0.375 1
vt 0.3125 1
vt 0.3125 0.9375
vt 0.375 0.9375
vt 0.375 1
vt 0.3125 0.9375
vt 0.375 1
vt 0.3125 1
vt 0.3125 0.9375
vt 0.375 0.9375
vt 0.375 1
vt 0.3125 0.9375
vt 0.375 1
vt 0.3125 1
vt 0.3125 0.9375
vt 0.375 0.9375
vt 0.375 1
vt 0.3125 0.9375
vt 0.375 1
vt 0.3125 1
vt 0.3125 0.9375
vt 0.375 0.9375
vt 0.375 1
vt 0.3125 0.9375
vt 0.375 1
vt 0.3125 1
vt 0.3125 0.9375
vt 0.375 0.9375
vt 0.375 1
vt 0.3125 0.9375
vt 0.375 1
vt 0.3125 1
vt 0.3125 0.9375
vt 0.375 0.9375
vt 0.375 1
vt 0.3125 0.9375
vt 0.375 1
vt 0.3125 1
vt 0.3125 0.9375
vt 0.375 0.9375
vt 0.375 1
vt 0.3125 0.9375
vt 0.375 1
vt 0.3125 1
vt 0.3125 0.9375
vt 0.375 0.9375
vt 0.375 1
vt 0.3125 0.9375
vt 0.375 1
vt 0.3125 1
vt 0.3125 0.9375
vt 0.375 0.9375
vt 0.375 1
vt 0.3125 0.9375
vt 0.375 1
vt 0.3125 1
vt 0.3125 0.9375
vt 0.375 0.9375
vt 0.375 1
vt 0.1875 0.9375
vt 0.25 1
vt 0.1875 1
vt 0.1875 0.9375
vt 0.25 0.9375
vt 0.25 1
vt 0.1875 0.9375
vt 0.25 1
vt 0.1875 1
vt 0.1875 0.9375
vt 0.25 0.9375
vt 0.25 1
vt 0.1875 0.9375
vt 0.25 1
vt 0.1875 1
vt 0.1875 0.9375
vt 0.25 0.9375
vt 0.25 1
vt 0.75 0.875
vt 0.8125 0.9375
vt 0.75 0.9375
vt 0.75 0.875
vt 0.8125 0.875
vt 0.8125 0.9375
vt 0.375 0.9375
vt 0.4375 1
vt 0.375 1
vt 0.375 0.9375
vt 0.4375 0.9375
vt 0.4375 1
vt 0.375 0.9375
vt 0.4375 1
vt 0.375 1
vt 0.375 0.9375
vt 0.4375 0.9375
vt 0.4375 1
vt 0.1875 0.9375
vt 0.25 1
vt 0.1875 1
vt 0.1875 0.9375
vt 0.25 0.9375
vt 0.25 1
vt 0.1875 0.9375
vt 0.25 1
vt 0.1875 1
vt 0.1875 0.9375
vt 0.25 0.9375
vt 0.25 1
vt 0.625 0.875
vt 0.6875 0.9375
vt 0.625 0.9375
vt 0.625 0.875
vt 0.6875 0.875
vt 0.6875 0.9375
vt 0.1875 0.9375
vt 0.25 1
vt 0.1875 1
vt 0.1875 0.9375
vt 0.25 0.9375
vt 0.25 1
vn 0.00004999499996656908 0.9999999987502499 -1.6641116937727158e-13
vn 0.000047135737969029454 0.7071067792228743 0.7071067815791864
vn 0.00004999499996660613 0.9999999987502499 -8.32795477519026e-14
vn 0.00004999499996656908 0.9999999987502499 -1.6641116937727158e-13
vn 0.00002356786898419878 0.7071067804010907 0.7071067815792459
vn 0.000047135737969029454 0.7071067792228743 0.7071067815791864
vn -0.0000166649999079278 0.9999999997222778 -0.000016665000074450216
vn 0.00002356786898419878 0.7071067804010907 0.7071067815792459
vn 0.00004999499996656908 0.9999999987502499 -1.6641116937727158e-13
vn -0.0000166649999079278 0.9999999997222778 -0.000016665000074450216
vn -5.49532360539321e-16 0.7071067811865481 0.7071067811865468
vn 0.00002356786898419878 0.7071067804010907 0.7071067815792459
vn 0.000016664999914989612 0.9999999993056944 -0.000033329999913065364
vn -5.49532360539321e-16 0.7071067811865481 0.7071067811865468
vn -0.0000166649999079278 0.9999999997222778 -0.000016665000074450216
vn 0.000016664999914989612 0.9999999993056944 -0.000033329999913065364
vn -7.588780216971576e-16 0.7071067811865485 0.7071067811865467
vn -5.49532360539321e-16 0.7071067811865481 0.7071067811865468
vn 1.110223024625157e-16 1 -3.7003773943352096e-25
vn -7.588780216971576e-16 0.7071067811865485 0.7071067811865467
vn 0.000016664999914989612 0.9999999993056944 -0.000033329999913065364
vn 1.110223024625157e-16 1 -3.7003773943352096e-25
vn 7.850462293418849e-17 0.7071067811865481 0.7071067811865468
vn -7.588780216971576e-16 0.7071067811865485 0.7071067811865467
vn -0.00003333000007958769 0.9999999993056944 0.000016664999998195177
vn 7.850462293418849e-17 0.7071067811865481 0.7071067811865468
vn 1.110223024625157e-16 1 -3.7003773943352096e-25
vn -0.00003333000007958769 0.9999999993056944 0.000016664999998195177
vn -0.00003535209817034065 0.707112671852745 0.7071008895875478
vn 7.850462293418849e-17 0.7071067811865481 0.7071067811865468
vn 0.00001666499994290713 0.9999999993056944 -0.00003332999996856721
vn 0.000016664999914989612 0.9999999993056944 -0.000033329999913065364
vn 1.6655941466971498e-13 1 -8.316872907736852e-14
vn 0.00001666499994290713 0.9999999993056944 -0.00003332999996856721
vn 1.110223024625157e-16 1 -3.7003773943352096e-25
vn 0.000016664999914989612 0.9999999993056944 -0.000033329999913065364
vn 0.00004999499996660612 0.9999999987502499 3.7096242790548386e-17
vn 0.00004999499996660613 0.9999999987502499 -8.32795477519026e-14
vn 0.00004999499996671711 0.9999999987502499 3.7051838680485295e-17
vn 0.00004999499996660612 0.9999999987502499 3.7096242790548386e-17
vn 0.00004999499996656908 0.9999999987502499 -1.6641116937727158e-13
vn 0.00004999499996660613 0.9999999987502499 -8.32795477519026e-14
vn 0.00006665999994624297 0.9999999977782221 7.398526503386109e-17
vn 0.00004999499996671711 0.9999999987502499 3.7051838680485295e-17
vn 0.000033329999973084465 0.9999999994445555 7.401486802056586e-17
vn 0.00006665999994624297 0.9999999977782221 7.398526503386109e-17
vn 0.00004999499996660612 0.9999999987502499 3.7096242790548386e-17
vn 0.00004999499996671711 0.9999999987502499 3.7051838680485295e-17
vn 5.259072701473412e-31 1 -5.921189479468993e-16
vn 0.00004999499996660612 0.9999999987502499 3.7096242790548386e-17
vn 0.00006665999994624297 0.9999999977782221 7.398526503386109e-17
vn 5.259072701473412e-31 1 -5.921189479468993e-16
vn -0.00003332999974639498 0.9999999993056946 0.000016664999831598748
vn 0.00004999499996660612 0.9999999987502499 3.7096242790548386e-17
vn -0.00003332999967700844 0.9999999972227777 0.00006665999985390011
vn -0.00003332999974639498 0.9999999993056946 0.000016664999831598748
vn 5.259072701473412e-31 1 -5.921189479468993e-16
vn -0.00003332999967700844 0.9999999972227777 0.00006665999985390011
vn 1.6655941466971498e-13 1 -8.316872907736852e-14
vn -0.00003332999974639498 0.9999999993056946 0.000016664999831598748
vn 2.221349560931408e-16 0.9999999994445555 0.000033330000084162245
vn 1.6655941466971498e-13 1 -8.316872907736852e-14
vn -0.00003332999967700844 0.9999999972227777 0.00006665999985390011
vn 2.221349560931408e-16 0.9999999994445555 0.000033330000084162245
vn 0.00001666499994290713 0.9999999993056944 -0.00003332999996856721
vn 1.6655941466971498e-13 1 -8.316872907736852e-14
vn 0.00004999499996660613 0.9999999987502499 -8.32795477519026e-14
vn -1.099064721078638e-15 0.7071067811865495 0.7071067811865457
vn -1.4802973661668785e-16 1 -3.2869204384208822e-31
vn 0.00004999499996660613 0.9999999987502499 -8.32795477519026e-14
vn 0.000047135737969029454 0.7071067792228743 0.7071067815791864
vn -1.099064721078638e-15 0.7071067811865495 0.7071067811865457
vn 0.00004999499996671711 0.9999999987502499 3.7051838680485295e-17
vn -1.4802973661668785e-16 1 -3.2869204384208822e-31
vn -2.9605947323337546e-16 1 7.401486830834351e-17
vn 0.00004999499996671711 0.9999999987502499 3.7051838680485295e-17
vn 0.00004999499996660613 0.9999999987502499 -8.32795477519026e-14
vn -1.4802973661668785e-16 1 -3.2869204384208822e-31
vn 0.000033329999973084465 0.9999999994445555 7.401486802056586e-17
vn -2.9605947323337546e-16 1 7.401486830834351e-17
vn -3.9443045261050485e-31 1 -2.2204460492503091e-16
vn 0.000033329999973084465 0.9999999994445555 7.401486802056586e-17
vn 0.00004999499996671711 0.9999999987502499 3.7051838680485295e-17
vn -2.9605947323337546e-16 1 7.401486830834351e-17
vn -0.000011784229069529601 0.7071244566710495 0.7070891051620052
vn 0.7071067811865447 1.818690431308693e-15 0.7071067811865505
vn -4.357623519686261e-15 2.803293714034139e-15 1
vn -0.000011784229069529601 0.7071244566710495 0.7070891051620052
vn 0.43647318533424545 0.8728590913059717 0.21819295407664005
vn 0.7071067811865447 1.818690431308693e-15 0.7071067811865505
vn -0.00003535209817034065 0.707112671852745 0.7071008895875478
vn -4.357623519686261e-15 2.803293714034139e-15 1
vn -2.2204460492503107e-15 2.026105219824601e-15 1
vn -0.00003535209817034065 0.707112671852745 0.7071008895875478
vn -0.000011784229069529601 0.7071244566710495 0.7070891051620052
vn -4.357623519686261e-15 2.803293714034139e-15 1
vn 7.850462293418849e-17 0.7071067811865481 0.7071067811865468
vn -2.2204460492503107e-15 2.026105219824601e-15 1
vn -3.7007434154172406e-17 7.401015061443514e-16 1
vn 7.850462293418849e-17 0.7071067811865481 0.7071067811865468
vn -0.00003535209817034065 0.707112671852745 0.7071008895875478
vn -2.2204460492503107e-15 2.026105219824601e-15 1
vn -7.588780216971576e-16 0.7071067811865485 0.7071067811865467
vn -3.7007434154172406e-17 7.401015061443514e-16 1
vn -1.4062824978585325e-15 1.0361526551564741e-15 1
vn -7.588780216971576e-16 0.7071067811865485 0.7071067811865467
vn 7.850462293418849e-17 0.7071067811865481 0.7071067811865468
vn -3.7007434154172406e-17 7.401015061443514e-16 1
vn -5.49532360539321e-16 0.7071067811865481 0.7071067811865468
vn -1.4062824978585325e-15 1.0361526551564741e-15 1
vn -1.665334536937734e-15 1.942827391418205e-15 1
vn -5.49532360539321e-16 0.7071067811865481 0.7071067811865468
vn -7.588780216971576e-16 0.7071067811865485 0.7071067811865467
vn -1.4062824978585325e-15 1.0361526551564741e-15 1
vn 0.00002356786898419878 0.7071067804010907 0.7071067815792459
vn -1.665334536937734e-15 1.942827391418205e-15 1
vn -1.2951861916287837e-15 2.5904889449258804e-15 1
vn 0.00002356786898419878 0.7071067804010907 0.7071067815792459
vn -5.49532360539321e-16 0.7071067811865481 0.7071067811865468
vn -1.665334536937734e-15 1.942827391418205e-15 1
vn 0.000047135737969029454 0.7071067792228743 0.7071067815791864
vn -1.2951861916287837e-15 2.5904889449258804e-15 1
vn -1.1842378929334985e-15 2.5906443610698916e-15 1
vn 0.000047135737969029454 0.7071067792228743 0.7071067815791864
vn 0.00002356786898419878 0.7071067804010907 0.7071067815792459
vn -1.2951861916287837e-15 2.5904889449258804e-15 1
vn -1.099064721078638e-15 0.7071067811865495 0.7071067811865457
vn -1.1842378929334985e-15 2.5906443610698916e-15 1
vn -8.881784197001201e-16 1.4063602106942952e-15 1
vn -1.099064721078638e-15 0.7071067811865495 0.7071067811865457
vn 0.000047135737969029454 0.7071067792228743 0.7071067815791864
vn -1.1842378929334985e-15 2.5906443610698916e-15 1
vn -8.881784197001201e-16 1.4063602106942952e-15 1
vn -4.710319351340999e-16 0.7070891050638204 0.7071244568674214
vn 0 0.70708910506382 0.7071244568674216
vn -8.881784197001201e-16 1.4063602106942952e-15 1
vn -1.1842378929334985e-15 2.5906443610698916e-15 1
vn -4.710319351340999e-16 0.7070891050638204 0.7071244568674214
vn -1.1842378929334985e-15 2.5906443610698916e-15 1
vn -6.280452418183741e-16 0.7070891050638201 0.7071244568674215
vn -4.710319351340999e-16 0.7070891050638204 0.7071244568674214
vn -1.1842378929334985e-15 2.5906443610698916e-15 1
vn -1.2951861916287837e-15 2.5904889449258804e-15 1
vn -6.280452418183741e-16 0.7070891050638201 0.7071244568674215
vn -1.2951861916287837e-15 2.5904889449258804e-15 1
vn -1.6224266500090171e-15 0.7070891050638207 0.7071244568674211
vn -6.280452418183741e-16 0.7070891050638201 0.7071244568674215
vn -1.2951861916287837e-15 2.5904889449258804e-15 1
vn -1.665334536937734e-15 1.942827391418205e-15 1
vn -1.6224266500090171e-15 0.7070891050638207 0.7071244568674211
vn -1.665334536937734e-15 1.942827391418205e-15 1
vn -1.3346027270695016e-15 0.7070891050638205 0.707124456867421
vn -1.6224266500090171e-15 0.7070891050638207 0.7071244568674211
vn -1.665334536937734e-15 1.942827391418205e-15 1
vn -1.4062824978585325e-15 1.0361526551564741e-15 1
vn -1.3346027270695016e-15 0.7070891050638205 0.707124456867421
vn -1.4062824978585325e-15 1.0361526551564741e-15 1
vn -4.971915027637892e-16 0.7070891050638202 0.7071244568674214
vn -1.3346027270695016e-15 0.7070891050638205 0.707124456867421
vn -1.4062824978585325e-15 1.0361526551564741e-15 1
vn -3.7007434154172406e-17 7.401015061443514e-16 1
vn -4.971915027637892e-16 0.7070891050638202 0.7071244568674214
vn -3.7007434154172406e-17 7.401015061443514e-16 1
vn 2.6168032671699465e-16 0.7070891050638204 0.7071244568674214
vn -4.971915027637892e-16 0.7070891050638202 0.7071244568674214
vn -3.7007434154172406e-17 7.401015061443514e-16 1
vn -2.2204460492503107e-15 2.026105219824601e-15 1
vn 2.6168032671699465e-16 0.7070891050638204 0.7071244568674214
vn -2.2204460492503107e-15 2.026105219824601e-15 1
vn -2.891580147777408e-15 0.7070891050638218 0.7071244568674201
vn 2.6168032671699465e-16 0.7070891050638204 0.7071244568674214
vn -2.2204460492503107e-15 2.026105219824601e-15 1
vn -4.357623519686261e-15 2.803293714034139e-15 1
vn -2.891580147777408e-15 0.7070891050638218 0.7071244568674201
vn -4.357623519686261e-15 2.803293714034139e-15 1
vn 0.3333444432870298 0.666655556296358 0.6666722218518286
vn -2.891580147777408e-15 0.7070891050638218 0.7071244568674201
vn -4.357623519686261e-15 2.803293714034139e-15 1
vn 0.7071067811865447 1.818690431308693e-15 0.7071067811865505
vn 0.3333444432870298 0.666655556296358 0.6666722218518286
vn 0.43647318533424545 0.8728590913059717 0.21819295407664005
vn 0.7071067811865418 -6.803733987629836e-16 0.7071067811865532
vn 0.7071067811865447 1.818690431308693e-15 0.7071067811865505
vn 0.43647318533424545 0.8728590913059717 0.21819295407664005
vn 0.3333629596915461 0.6666592592902412 0.6666592601234003
vn 0.7071067811865418 -6.803733987629836e-16 0.7071067811865532
vn 0.7071067811865447 1.818690431308693e-15 0.7071067811865505
vn 0.6666722218517953 0.6666555562963646 0.33334444328708296
vn 0.3333444432870298 0.666655556296358 0.6666722218518286
vn 0.7071067811865447 1.818690431308693e-15 0.7071067811865505
vn 0.7071067811865418 -6.803733987629836e-16 0.7071067811865532
vn 0.6666722218517953 0.6666555562963646 0.33334444328708296
vn 0.3333444432870298 0.666655556296358 0.6666722218518286
vn 0.000016664999998108542 0.9999999993056945 0.00003333000007953417
vn -2.891580147777408e-15 0.7070891050638218 0.7071244568674201
vn 0.3333444432870298 0.666655556296358 0.6666722218518286
vn 0.6666722218517953 0.6666555562963646 0.33334444328708296
vn 0.000016664999998108542 0.9999999993056945 0.00003333000007953417
vn -2.891580147777408e-15 0.7070891050638218 0.7071244568674201
vn -2.032879070869738e-20 0.9999999987502498 0.000049995000091531734
vn 2.6168032671699465e-16 0.7070891050638204 0.7071244568674214
vn -2.891580147777408e-15 0.7070891050638218 0.7071244568674201
vn 0.000016664999998108542 0.9999999993056945 0.00003333000007953417
vn -2.032879070869738e-20 0.9999999987502498 0.000049995000091531734
vn 2.6168032671699465e-16 0.7070891050638204 0.7071244568674214
vn 2.710505427826313e-20 0.9999999987502498 0.00004999500009153169
vn -4.971915027637892e-16 0.7070891050638202 0.7071244568674214
vn 2.6168032671699465e-16 0.7070891050638204 0.7071244568674214
vn -2.032879070869738e-20 0.9999999987502498 0.000049995000091531734
vn 2.710505427826313e-20 0.9999999987502498 0.00004999500009153169
vn -4.971915027637892e-16 0.7070891050638202 0.7071244568674214
vn -3.839882689420622e-20 0.9999999987502498 0.00004999500009153174
vn -1.3346027270695016e-15 0.7070891050638205 0.707124456867421
vn -4.971915027637892e-16 0.7070891050638202 0.7071244568674214
vn 2.710505427826313e-20 0.9999999987502498 0.00004999500009153169
vn -3.839882689420622e-20 0.9999999987502498 0.00004999500009153174
vn -1.3346027270695016e-15 0.7070891050638205 0.707124456867421
vn -4.291633594058353e-20 0.9999999987502498 0.000049995000091531876
vn -1.6224266500090171e-15 0.7070891050638207 0.7071244568674211
vn -1.3346027270695016e-15 0.7070891050638205 0.707124456867421
vn -3.839882689420622e-20 0.9999999987502498 0.00004999500009153174
vn -4.291633594058353e-20 0.9999999987502498 0.000049995000091531876
vn -1.6224266500090171e-15 0.7070891050638207 0.7071244568674211
vn -2.220558984201483e-16 0.9999999987502498 0.000049995000091976026
vn -6.280452418183741e-16 0.7070891050638201 0.7071244568674215
vn -1.6224266500090171e-15 0.7070891050638207 0.7071244568674211
vn -4.291633594058353e-20 0.9999999987502498 0.000049995000091531876
vn -2.220558984201483e-16 0.9999999987502498 0.000049995000091976026
vn -6.280452418183741e-16 0.7070891050638201 0.7071244568674215
vn 2.2202201710230119e-16 0.9999999987502498 0.000049995000091754036
vn -4.710319351340999e-16 0.7070891050638204 0.7071244568674214
vn -6.280452418183741e-16 0.7070891050638201 0.7071244568674215
vn -2.220558984201483e-16 0.9999999987502498 0.000049995000091976026
vn 2.2202201710230119e-16 0.9999999987502498 0.000049995000091754036
vn -4.710319351340999e-16 0.7070891050638204 0.7071244568674214
vn 0 0.9999999987502501 0.000049995000091532025
vn 0 0.70708910506382 0.7071244568674216
vn -4.710319351340999e-16 0.7070891050638204 0.7071244568674214
vn 2.2202201710230119e-16 0.9999999987502498 0.000049995000091754036
vn 0 0.9999999987502501 0.000049995000091532025
vn 0.00008332499994909921 0.9999999963896111 -0.00001666500012290703
vn 0.43647318533424545 0.8728590913059717 0.21819295407664005
vn 0.00004999499996128828 0.9999999984378125 -0.00002499750008461729
vn 0.00008332499994909921 0.9999999963896111 -0.00001666500012290703
vn 0.000037496250171443994 0.9999999992970157 -6.262618349398209e-14
vn 0.43647318533424545 0.8728590913059717 0.21819295407664005
vn 0.0000999899998081756 0.9999999950009999 0
vn 0.00004999499996128828 0.9999999984378125 -0.00002499750008461729
vn 0.000016665000296651013 0.9999999997222779 0.00001666499996340103
vn 0.0000999899998081756 0.9999999950009999 0
vn 0.00008332499994909921 0.9999999963896111 -0.00001666500012290703
vn 0.00004999499996128828 0.9999999984378125 -0.00002499750008461729
vn 0.00009998999980817563 0.9999999950010001 0
vn 0.000016665000296651013 0.9999999997222779 0.00001666499996340103
vn -0.00003332999991752893 0.9999999994445555 1.6663331812493698e-13
vn 0.00009998999980817563 0.9999999950010001 0
vn 0.0000999899998081756 0.9999999950009999 0
vn 0.000016665000296651013 0.9999999997222779 0.00001666499996340103
vn 0.000037496250171443994 0.9999999992970157 -6.262618349398209e-14
vn 0.3333629596915461 0.6666592592902412 0.6666592601234003
vn 0.43647318533424545 0.8728590913059717 0.21819295407664005
vn 0.000037496250171443994 0.9999999992970157 -6.262618349398209e-14
vn 0.000011783934558733839 0.7071067809901684 0.7071067812847373
vn 0.3333629596915461 0.6666592592902412 0.6666592601234003
vn 0 1 0
vn 0.000011783934558733839 0.7071067809901684 0.7071067812847373
vn 0.000037496250171443994 0.9999999992970157 -6.262618349398209e-14
vn 0 1 0
vn 0.43643370315631946 0.8728674041307978 0.21823867108105263
vn 0.000011783934558733839 0.7071067809901684 0.7071067812847373
vn 0 1 0
vn 0.43643370315631946 0.8728674041307978 0.21823867108105263
vn 0 1 0
vn 0 1 0
vn 0.00003333000001011038 0.999999998889111 0.00003333000001011038
vn 0.43643370315631946 0.8728674041307978 0.21823867108105263
vn 0.00003333000001011038 0.999999998889111 0.00003333000001011038
vn 0.7071303503320743 0.7070832108626468 0.00002356708349065193
vn 0.43643370315631946 0.8728674041307978 0.21823867108105263
vn 0.00003333000001011038 0.999999998889111 0.00003333000001011038
vn 0.0000999899998081756 0.9999999950009999 0
vn 0.7071303503320743 0.7070832108626468 0.00002356708349065193
vn 0.0000999899998081756 0.9999999950009999 0
vn 0.33339258561747276 0.6666518500315333 0.666651854197399
vn 0.7071303503320743 0.7070832108626468 0.00002356708349065193
vn 0.0000999899998081756 0.9999999950009999 0
vn 0.00007070360691520255 0.7071067776517206 0.7071067811865475
vn 0.33339258561747276 0.6666518500315333 0.666651854197399
vn 0.3333629596915461 0.6666592592902412 0.6666592601234003
vn -5.551115127381038e-15 2.2204460918024746e-16 1
vn 0.7071067811865418 -6.803733987629836e-16 0.7071067811865532
vn 0.3333629596915461 0.6666592592902412 0.6666592601234003
vn 0.000011783934558733839 0.7071067809901684 0.7071067812847373
vn -5.551115127381038e-15 2.2204460918024746e-16 1
vn 0.7071067811865418 -6.803733987629836e-16 0.7071067811865532
vn -3.611167107008954e-15 0.7070891050638195 0.7071244568674223
vn 0.6666722218517953 0.6666555562963646 0.33334444328708296
vn 0.7071067811865418 -6.803733987629836e-16 0.7071067811865532
vn -5.551115127381038e-15 2.2204460918024746e-16 1
vn -3.611167107008954e-15 0.7070891050638195 0.7071244568674223
vn 0.000011783934558733839 0.7071067809901684 0.7071067812847373
vn 0.7071067811865476 -5.89167208852877e-10 0.7071067811865476
vn -5.551115127381038e-15 2.2204460918024746e-16 1
vn 0.000011783934558733839 0.7071067809901684 0.7071067812847373
vn 0.43643370315631946 0.8728674041307978 0.21823867108105263
vn 0.7071067811865476 -5.89167208852877e-10 0.7071067811865476
vn -5.551115127381038e-15 2.2204460918024746e-16 1
vn 0.3333444432870327 0.6666555562963563 0.6666722218518287
vn -3.611167107008954e-15 0.7070891050638195 0.7071244568674223
vn -5.551115127381038e-15 2.2204460918024746e-16 1
vn 0.7071067811865476 -5.89167208852877e-10 0.7071067811865476
vn 0.3333444432870327 0.6666555562963563 0.6666722218518287
vn 0.43643370315631946 0.8728674041307978 0.21823867108105263
vn 1 -1.2498957025571774e-9 -4.1660412366695824e-14
vn 0.7071067811865476 -5.89167208852877e-10 0.7071067811865476
vn 0.43643370315631946 0.8728674041307978 0.21823867108105263
vn 0.7071303503320743 0.7070832108626468 0.00002356708349065193
vn 1 -1.2498957025571774e-9 -4.1660412366695824e-14
vn 0.7071067811865476 -5.89167208852877e-10 0.7071067811865476
vn 0.7071244568673772 0.7070891050638645 0
vn 0.3333444432870327 0.6666555562963563 0.6666722218518287
vn 0.7071067811865476 -5.89167208852877e-10 0.7071067811865476
vn 1 -1.2498957025571774e-9 -4.1660412366695824e-14
vn 0.7071244568673772 0.7070891050638645 0
vn 1 -1.2498957025571774e-9 -4.1660412366695824e-14
vn 0.8165033843854811 0.408241486665972 0.4082414871761717
vn 0.7071244568673772 0.7070891050638645 0
vn 1 -1.2498957025571774e-9 -4.1660412366695824e-14
vn 0.7071067811865476 -1.1784522452553316e-9 0.7071067811865476
vn 0.8165033843854811 0.408241486665972 0.4082414871761717
vn 0.7071303503320743 0.7070832108626468 0.00002356708349065193
vn 0.7071067811865476 -1.1784522452553316e-9 0.7071067811865476
vn 1 -1.2498957025571774e-9 -4.1660412366695824e-14
vn 0.7071303503320743 0.7070832108626468 0.00002356708349065193
vn 0.33339258561747276 0.6666518500315333 0.666651854197399
vn 0.7071067811865476 -1.1784522452553316e-9 0.7071067811865476
vn 0.33339258561747276 0.6666518500315333 0.666651854197399
vn 0 0 1
vn 0.7071067811865476 -1.1784522452553316e-9 0.7071067811865476
vn 0.33339258561747276 0.6666518500315333 0.666651854197399
vn 0.00007070360691520255 0.7071067776517206 0.7071067811865475
vn 0 0 1
vn 0.7071067811865476 -1.1784522452553316e-9 0.7071067811865476
vn 0 0 1
vn 0.8165033843854811 0.408241486665972 0.4082414871761717
vn 0.7071067811865476 -1.1784522452553316e-9 0.7071067811865476
vn 0 0 1
vn 0 0 1
vn 0.3333444432870327 0.6666555562963563 0.6666722218518287
vn 0.0000249974999988986 0.999999999375125 0.000024997500061386093
vn -3.611167107008954e-15 0.7070891050638195 0.7071244568674223
vn 0.3333444432870327 0.6666555562963563 0.6666722218518287
vn 0.7071244568673772 0.7070891050638645 0
vn 0.0000249974999988986 0.999999999375125 0.000024997500061386093
vn 0.7071244568673772 0.7070891050638645 0
vn 0.00004999499996655658 0.9999999987502501 0
vn 0.0000249974999988986 0.999999999375125 0.000024997500061386093
vn 0.7071244568673772 0.7070891050638645 0
vn 0.8165033843854811 0.408241486665972 0.4082414871761717
vn 0.00004999499996655658 0.9999999987502501 0
vn -3.611167107008954e-15 0.7070891050638195 0.7071244568674223
vn -9.486768997392145e-20 0.9999999987502501 0.000049995000091531666
vn 0.6666722218517953 0.6666555562963646 0.33334444328708296
vn -3.611167107008954e-15 0.7070891050638195 0.7071244568674223
vn 0.0000249974999988986 0.999999999375125 0.000024997500061386093
vn -9.486768997392145e-20 0.9999999987502501 0.000049995000091531666
vn 1.6655941466971498e-13 1 -8.316872907736852e-14
vn -0.0000166649999079278 0.9999999997222778 -0.000016665000074450216
vn -0.00003332999974639498 0.9999999993056946 0.000016664999831598748
vn 1.6655941466971498e-13 1 -8.316872907736852e-14
vn 0.000016664999914989612 0.9999999993056944 -0.000033329999913065364
vn -0.0000166649999079278 0.9999999997222778 -0.000016665000074450216
vn -0.00003332999974639498 0.9999999993056946 0.000016664999831598748
vn 0.00004999499996656908 0.9999999987502499 -1.6641116937727158e-13
vn 0.00004999499996660612 0.9999999987502499 3.7096242790548386e-17
vn -0.00003332999974639498 0.9999999993056946 0.000016664999831598748
vn -0.0000166649999079278 0.9999999997222778 -0.000016665000074450216
vn 0.00004999499996656908 0.9999999987502499 -1.6641116937727158e-13
vn 0.000016664999914767463 0.9999999993056944 -0.000033329999912843306
vn 1.110223024625157e-16 1 -3.7003773943352096e-25
vn 0.00001666499994290713 0.9999999993056944 -0.00003332999996856721
vn 0.000016664999914767463 0.9999999993056944 -0.000033329999912843306
vn -0.00003333000007958769 0.9999999993056944 0.000016664999998195177
vn 1.110223024625157e-16 1 -3.7003773943352096e-25
vn -1.6669068633702847e-13 0.9999999994445555 -0.0000333299997509863
vn 0.000016664999914767463 0.9999999993056944 -0.000033329999912843306
vn -1.6654259835049172e-13 0.9999999977782221 -0.00006666000000200388
vn -1.6669068633702847e-13 0.9999999994445555 -0.0000333299997509863
vn -0.0000666599997703615 0.9999999972227777 0.00003332999992684739
vn 0.000016664999914767463 0.9999999993056944 -0.000033329999912843306
vn 0.000016665000296651013 0.9999999997222779 0.00001666499996340103
vn -0.00005832749997689455 0.9999999981600903 0.000016664999861081407
vn -0.0000666599997703615 0.9999999972227777 0.00003332999992684739
vn 0.000016665000296651013 0.9999999997222779 0.00001666499996340103
vn 0.00004999499996128828 0.9999999984378125 -0.00002499750008461729
vn -0.00005832749997689455 0.9999999981600903 0.000016664999861081407
vn 0.00004999499996128828 0.9999999984378125 -0.00002499750008461729
vn -0.000011784229069529601 0.7071244566710495 0.7070891051620052
vn -0.00005832749997689455 0.9999999981600903 0.000016664999861081407
vn 0.00004999499996128828 0.9999999984378125 -0.00002499750008461729
vn 0.43647318533424545 0.8728590913059717 0.21819295407664005
vn -0.000011784229069529601 0.7071244566710495 0.7070891051620052
vn -0.0000666599997703615 0.9999999972227777 0.00003332999992684739
vn -0.00003333000007958769 0.9999999993056944 0.000016664999998195177
vn 0.000016664999914767463 0.9999999993056944 -0.000033329999912843306
vn -0.0000666599997703615 0.9999999972227777 0.00003332999992684739
vn -0.00005832749997689455 0.9999999981600903 0.000016664999861081407
vn -0.00003333000007958769 0.9999999993056944 0.000016664999998195177
vn -0.00005832749997689455 0.9999999981600903 0.000016664999861081407
vn -0.00003535209817034065 0.707112671852745 0.7071008895875478
vn -0.00003333000007958769 0.9999999993056944 0.000016664999998195177
vn -0.00005832749997689455 0.9999999981600903 0.000016664999861081407
vn -0.000011784229069529601 0.7071244566710495 0.7070891051620052
vn -0.00003535209817034065 0.707112671852745 0.7071008895875478
vn -0.00003332999991752893 0.9999999994445555 1.6663331812493698e-13
vn -0.0000666599997703615 0.9999999972227777 0.00003332999992684739
vn -1.6669068633702847e-13 0.9999999994445555 -0.0000333299997509863
vn -0.00003332999991752893 0.9999999994445555 1.6663331812493698e-13
vn 0.000016665000296651013 0.9999999997222779 0.00001666499996340103
vn -0.0000666599997703615 0.9999999972227777 0.00003332999992684739
vn -1.6654259835049172e-13 0.9999999977782221 -0.00006666000000200388
vn 0.00001666499994290713 0.9999999993056944 -0.00003332999996856721
vn 2.221349560931408e-16 0.9999999994445555 0.000033330000084162245
vn -1.6654259835049172e-13 0.9999999977782221 -0.00006666000000200388
vn 0.000016664999914767463 0.9999999993056944 -0.000033329999912843306
vn 0.00001666499994290713 0.9999999993056944 -0.00003332999996856721
g Scene
usemtl material1
f 1/1/1 3/2/2 2/3/3
f 1/4/4 4/5/5 3/6/6
f 5/7/7 4/8/8 1/9/9
f 5/10/10 6/11/11 4/12/12
f 7/13/13 6/14/14 5/15/15
f 7/16/16 8/17/17 6/18/18
f 9/19/19 8/20/20 7/21/21
f 9/22/22 10/23/23 8/24/24
f 11/25/25 10/26/26 9/27/27
f 11/28/28 12/29/29 10/30/30
f 13/31/31 7/32/32 14/33/33
f 13/34/34 9/35/35 7/36/36
f 15/37/37 2/38/38 16/39/39
f 15/40/40 1/41/41 2/42/42
f 17/43/43 16/44/44 18/45/45
f 17/46/46 15/47/47 16/48/48
f 19/49/49 15/50/50 17/51/51
f 19/52/52 20/53/53 15/54/54
f 21/55/55 20/56/56 19/57/57
f 21/58/58 14/59/59 20/60/60
f 22/61/61 14/62/62 21/63/63
f 22/64/64 13/65/65 14/66/66
f 2/67/67 24/68/68 23/69/69
f 2/70/70 3/71/71 24/72/72
f 16/73/73 23/74/74 25/75/75
f 16/76/76 2/77/77 23/78/78
f 18/79/79 25/80/80 26/81/81
f 18/82/82 16/83/83 25/84/84
f 27/85/85 29/86/86 28/87/87
f 27/88/88 30/89/89 29/90/90
f 12/91/91 28/92/92 31/93/93
f 12/94/94 27/95/95 28/96/96
f 10/97/97 31/98/98 32/99/99
f 10/100/100 12/101/101 31/102/102
f 8/103/103 32/104/104 33/105/105
f 8/106/106 10/107/107 32/108/108
f 6/109/109 33/110/110 34/111/111
f 6/112/112 8/113/113 33/114/114
f 4/115/115 34/116/116 35/117/117
f 4/118/118 6/119/119 34/120/120
f 3/121/121 35/122/122 36/123/123
f 3/124/124 4/125/125 35/126/126
f 24/127/127 36/128/128 37/129/129
f 24/130/130 3/131/131 36/132/132
f 37/133/133 39/134/134 38/135/135
f 37/136/136 36/137/137 39/138/138
f 36/139/139 40/140/140 39/141/141
f 36/142/142 35/143/143 40/144/144
f 35/145/145 41/146/146 40/147/147
f 35/148/148 34/149/149 41/150/150
f 34/151/151 42/152/152 41/153/153
f 34/154/154 33/155/155 42/156/156
f 33/157/157 43/158/158 42/159/159
f 33/160/160 32/161/161 43/162/162
f 32/163/163 44/164/164 43/165/165
f 32/166/166 31/167/167 44/168/168
f 31/169/169 45/170/170 44/171/171
f 31/172/172 28/173/173 45/174/174
f 28/175/175 46/176/176 45/177/177
f 28/178/178 29/179/179 46/180/180
f 30/181/181 47/182/182 29/183/183
f 30/184/184 48/185/185 47/186/186
f 29/187/187 49/188/188 46/189/189
f 29/190/190 47/191/191 49/192/192
f 46/193/193 50/194/194 45/195/195
f 46/196/196 49/197/197 50/198/198
f 45/199/199 51/200/200 44/201/201
f 45/202/202 50/203/203 51/204/204
f 44/205/205 52/206/206 43/207/207
f 44/208/208 51/209/209 52/210/210
f 43/211/211 53/212/212 42/213/213
f 43/214/214 52/215/215 53/216/216
f 42/217/217 54/218/218 41/219/219
f 42/220/220 53/221/221 54/222/222
f 41/223/223 55/224/224 40/225/225
f 41/226/226 54/227/227 55/228/228
f 40/229/229 56/230/230 39/231/231
f 40/232/232 55/233/233 56/234/234
f 39/235/235 57/236/236 38/237/237
f 39/238/238 56/239/239 57/240/240
f 58/241/241 30/242/242 59/243/243
f 58/244/244 60/245/245 30/246/246
f 61/247/247 59/248/248 62/249/249
f 61/250/250 58/251/251 59/252/252
f 63/253/253 62/254/254 64/255/255
f 63/256/256 61/257/257 62/258/258
f 60/259/259 48/260/260 30/261/261
f 60/262/262 65/263/263 48/264/264
f 66/265/265 65/266/266 60/267/267
f 66/268/268 67/269/269 65/270/270
f 68/271/271 67/272/272 66/273/273
f 68/274/274 69/275/275 67/276/276
f 69/277/277 70/278/278 67/279/279
f 69/280/280 71/281/281 70/282/282
f 71/283/283 72/284/284 70/285/285
f 71/286/286 73/287/287 72/288/288
f 48/289/289 74/290/290 47/291/291
f 48/292/292 65/293/293 74/294/294
f 47/295/295 75/296/296 49/297/297
f 47/298/298 74/299/299 75/300/300
f 65/301/301 76/302/302 74/303/303
f 65/304/304 67/305/305 76/306/306
f 74/307/307 77/308/308 75/309/309
f 74/310/310 76/311/311 77/312/312
f 67/313/313 78/314/314 76/315/315
f 67/316/316 70/317/317 78/318/318
f 76/319/319 79/320/320 77/321/321
f 76/322/322 78/323/323 79/324/324
f 78/325/325 80/326/326 79/327/327
f 78/328/328 81/329/329 80/330/330
f 70/331/331 81/332/332 78/333/333
f 70/334/334 72/335/335 81/336/336
f 72/337/337 82/338/338 81/339/339
f 72/340/340 73/341/341 82/342/342
f 81/343/343 83/344/344 80/345/345
f 81/346/346 82/347/347 83/348/348
f 77/349/349 84/350/350 75/351/351
f 77/352/352 79/353/353 84/354/354
f 79/355/355 85/356/356 84/357/357
f 79/358/358 80/359/359 85/360/360
f 75/361/361 86/362/362 49/363/363
f 75/364/364 84/365/365 86/366/366
f 14/367/367 5/368/368 20/369/369
f 14/370/370 7/371/371 5/372/372
f 20/373/373 1/374/374 15/375/375
f 20/376/376 5/377/377 1/378/378
f 87/379/379 9/380/380 13/381/381
f 87/382/382 11/383/383 9/384/384
f 88/385/385 87/386/386 89/387/387
f 88/388/388 90/389/389 87/390/390
f 62/391/391 91/392/392 90/393/393
f 62/394/394 59/395/395 91/396/396
f 59/397/397 27/398/398 91/399/399
f 59/400/400 30/401/401 27/402/402
f 90/403/403 11/404/404 87/405/405
f 90/406/406 91/407/407 11/408/408
f 91/409/409 12/410/410 11/411/411
f 91/412/412 27/413/413 12/414/414
f 64/415/415 90/416/416 88/417/417
f 64/418/418 62/419/419 90/420/420
f 89/421/421 13/422/422 22/423/423
f 89/424/424 87/425/425 13/426/426
